Emblr workshop: purrr
…
##     assembly_accession  : character
##     replicons           : character
##     wgs                 : character
##     scaffolds           : double
##     genes               : double
##     proteins            : double
##     release_date        : date
##     modify_date         : date
##     status              : character
##     center              : character
##     biosample_accession : character
##   >
## >[5]>
## [[1]]
## # A tibble: 51 x 18
##    organism_name  taxid bioproject_acce bioproject_id subgroup size_mb    gc
##    <chr>          <dbl> <chr>                    <dbl> <chr>      <dbl> <dbl>
##  1 Pyropia yezo   2788 PRJNA589917             589917 Other      108.   64.8
##  2 Thalassiosir 296543 PRJNA191                   191 Other       32.4  46.9
##  3 Guillardia t 905079 PRJNA53577               53577 Other       87.1  52.9
##  4 Cyanidioschy 280699 PRJNA10792               10792 Other       16.5  55.0
##  5 Galdieria su 130081 PRJNA13023               13023 Other       13.7  37.9
##  6 Phaeodactylu 556484 PRJNA13152               13152 Other       27.5  48.8
##  7 Bigelowiella 753081 PRJNA47111               47111 Other       91.4  44.9
##  8 Ectocarpus s   2880 PRJEA42625               42625 Other      196.   53.5
##  9 Thalassiosir 159749 PRJNA36595               36595 Other       92.2  53.3
## 10 Fragilariops 635003 PRJNA32761               32761 Other       80.5  39  
## #  with 41 more rows, and 11 more variables: assembly_accession <chr>,
## #   replicons <chr>, wgs <chr>, scaffolds <dbl>, genes <dbl>, proteins <dbl>,
## #   release_date <date>, modify_date <date>, status <chr>, center <chr>,
## #   biosample_accession <chr>
## 
## [[2]]
## # A tibble: 888 x 18
##    organism_name  taxid bioproject_acce bioproject_id subgroup size_mb    gc
##    <chr>          <dbl> <chr>                    <dbl> <chr>      <dbl> <dbl>
##  1 Emiliania hu 280463 PRJNA77753               77753 Other P  168.    64.5
##  2 Leishmania m 347515 PRJNA10724               10724 Kinetop   32.9   59.7
##  3 Trypanosoma  679716 PRJEA40697               40697 Kinetop   22.1   47.2
##  4 Trypanosoma    5693 PRJNA11755               11755 Kinetop   89.9   51.7
##  5 Entamoeba hi 294381 PRJNA142                   142 Other P   20.8   24.3
##  6 Giardia inte   5741 PRJNA561185             561185 Other P   11.5   49.6
##  7 Eimeria tene   5802 PRJEB4863               224694 Apicomp   51.9   51.1
##  8 Cryptosporid 353152 PRJNA144                   144 Apicomp    9.10  30.2
##  9 Toxoplasma g 508771 PRJNA28893               28893 Apicomp   65.7   52.3
## 10 Plasmodium b   5821 PRJEB11993              305111 Apicomp   18.8   22.1
## #  with 878 more rows, and 11 more variables: assembly_accession <chr>,
## #   replicons <chr>, wgs <chr>, scaffolds <dbl>, genes <dbl>, proteins <dbl>,
## #   release_date <date>, modify_date <date>, status <chr>, center <chr>,
## #   biosample_accession <chr>
## 
## [[3]]
## # A tibble: 1,304 x 18
##    organism_name  taxid bioproject_acce bioproject_id subgroup size_mb    gc
##    <chr>          <dbl> <chr>                    <dbl> <chr>      <dbl> <dbl>
##  1 Arabidopsis    3702 PRJNA10719               10719 Land Pl    120.  36.1
##  2 Glycine max     3847 PRJNA19861               19861 Land Pl    979.  35.1
##  3 Medicago tru   3880 PRJNA10791               10791 Land Pl    413.  34.0
##  4 Solanum lyco   4081 PRJNA119                   119 Land Pl    828.  35.7
##  5 Hordeum vulg 112509 PRJEB34217              576847 Land Pl   4341.  44.6
##  6 Oryza sativa  39947 PRJNA12269               12269 Land Pl    374.  43.6
##  7 Triticum aes   4565 PRJNA392179             392179 Land Pl  15419.  46.1
##  8 Zea mays        4577 PRJNA10769               10769 Land Pl   2135.  46.9
##  9 Coffea arabi  13443 PRJNA506972             506972 Land Pl   1094.  37.0
## 10 Lotus japoni  34305 PRJDA28941               28941 Land Pl    394.  36.6
## #  with 1,294 more rows, and 11 more variables: assembly_accession <chr>,
## #   replicons <chr>, wgs <chr>, scaffolds <dbl>, genes <dbl>, proteins <dbl>,
## #   release_date <date>, modify_date <date>, status <chr>, center <chr>,
## #   biosample_accession <chr>
## 
## [[4]]
## # A tibble: 6,064 x 18
##    organism_name  taxid bioproject_acce bioproject_id subgroup size_mb    gc
##    <chr>          <dbl> <chr>                    <dbl> <chr>      <dbl> <dbl>
##  1 Pneumocystis 1.41e6 PRJNA223511             223511 Ascomyc    7.66  27.8
##  2 Schizosaccha 4.90e3 PRJNA13836               13836 Ascomyc   12.6   36.0
##  3 Saccharomyce 5.59e5 PRJNA43747               43747 Ascomyc   12.2   38.2
##  4 Aspergillus  2.27e5 PRJNA130                   130 Ascomyc   30.3   50.3
##  5 Aspergillus  3.31e5 PRJNA131                   131 Ascomyc   29.4   49.8
##  6 Neurospora c 3.67e5 PRJNA13841               13841 Ascomyc   41.1   48.2
##  7 Phanerochaet 5.31e3 PRJNA343563             343563 Basidio   39.2   56.5
##  8 Candida albi 2.38e5 PRJNA10701               10701 Ascomyc   14.3   33.5
##  9 Encephalitoz 2.85e5 PRJNA13833               13833 Other F    2.50  47.3
## 10 Aspergillus  3.42e5 PRJNA15631               15631 Ascomyc   29.4   52.8
## #  with 6,054 more rows, and 11 more variables: assembly_accession <chr>,
## #   replicons <chr>, wgs <chr>, scaffolds <dbl>, genes <dbl>, proteins <dbl>,
## #   release_date <date>, modify_date <date>, status <chr>, center <chr>,
## #   biosample_accession <chr>
## 
## [[5]]
## # A tibble: 3,201 x 18
##    organism_name  taxid bioproject_acce bioproject_id subgroup size_mb    gc
##    <chr>          <dbl> <chr>                    <dbl> <chr>      <dbl> <dbl>
##  1 Caenorhabdit   6238 PRJNA10731               10731 Roundwo   108.   37.7
##  2 Caenorhabdit   6239 PRJNA13758               13758 Roundwo   100.   35.4
##  3 Brugia malayi   6279 PRJNA10729               10729 Roundwo    93.7  31.5
##  4 Aedes aegypti   7159 PRJNA392114             392114 Insects   1279.   38.2
##  5 Aedes albopi   7160 PRJNA552090             552090 Insects   2538.   40.4
##  6 Anopheles ga 180454 PRJNA1438                 1438 Insects    265.   44.5
##  7 Drosophila m   7227 PRJNA13669               13669 Insects    144.   42.1
##  8 Apis mellife   7460 PRJNA477511             477511 Insects    225.   32.6
##  9 Ciona intest   7719 PRJDA65419               65419 Other A   115.   36.0
## 10 Danio rerio     7955 PRJNA11776               11776 Fishes    1679.   36.6
## #  with 3,191 more rows, and 11 more variables: assembly_accession <chr>,
## #   replicons <chr>, wgs <chr>, scaffolds <dbl>, genes <dbl>, proteins <dbl>,
## #   release_date <date>, modify_date <date>, status <chr>, center <chr>,
## #   biosample_accession <chr>

Basically, we have split up our gigantic eukaryote data frame into 5 smaller data frames, one for each grouping variable, but still stored in one convenient data frame called eukaryotes_nested. (data frame-ception?)

You can now access each of these sub data frames e.g.using base R list operators:

eukaryotes_nested$data[[1]] %>% View()

If you had enough of your nested table, you can easily unnest it again using unnest():

eukaryotes_nested %>% 
  unnest(data)

## # A tibble: 11,508 x 19
## # Groups:   group [5]
##    group organism_name  taxid bioproject_acce bioproject_id subgroup size_mb
##    <chr> <chr>          <dbl> <chr>                    <dbl> <chr>      <dbl>
##  1 Other Pyropia yezo   2788 PRJNA589917             589917 Other      108. 
##  2 Other Thalassiosir 296543 PRJNA191                   191 Other       32.4
##  3 Other Guillardia t 905079 PRJNA53577               53577 Other       87.1
##  4 Other Cyanidioschy 280699 PRJNA10792               10792 Other       16.5
##  5 Other Galdieria su 130081 PRJNA13023               13023 Other       13.7
##  6 Other Phaeodactylu 556484 PRJNA13152               13152 Other       27.5
##  7 Other Bigelowiella 753081 PRJNA47111               47111 Other       91.4
##  8 Other Ectocarpus s   2880 PRJEA42625               42625 Other      196. 
##  9 Other Thalassiosir 159749 PRJNA36595               36595 Other       92.2
## 10 Other Fragilariops 635003 PRJNA32761               32761 Other       80.5
## #  with 11,498 more rows, and 12 more variables: gc <dbl>,
## #   assembly_accession <chr>, replicons <chr>, wgs <chr>, scaffolds <dbl>,
## #   genes <dbl>, proteins <dbl>, release_date <date>, modify_date <date>,
## #   status <chr>, center <chr>, biosample_accession <chr>
…
